Found a 23 line (134 tokens) duplication in the following files: 
Starting at line 90 of /home/danysk/git/oop16-barbieri-edoardo-mondani-lorenzo-pancisi-emanuele-perudo/src/perudo/view/swing/panels/menu/LobbyInfoPanel.java
Starting at line 141 of /home/danysk/git/oop16-barbieri-edoardo-mondani-lorenzo-pancisi-emanuele-perudo/src/perudo/view/swing/panels/menu/LobbyInfoPanel.java

                        }

                        @Override
                        public void mouseReleased(final MouseEvent event) {
                        }

                        @Override
                        public void mouseEntered(final MouseEvent event) {
                            ((JLabel) event.getSource()).setBorder(BorderFactory.createCompoundBorder(
                                    BorderFactory.createLineBorder(Color.GRAY), new EmptyBorder(PLAYER_BOX_PADDING,
                                            PLAYER_BOX_PADDING, PLAYER_BOX_PADDING, PLAYER_BOX_PADDING)));
                            setCursor(new Cursor(Cursor.HAND_CURSOR));
                        }

                        @Override
                        public void mouseExited(final MouseEvent event) {
                            ((JLabel) event.getSource()).setBorder(BorderFactory.createCompoundBorder(
                                    BorderFactory.createLineBorder(Color.BLACK), new EmptyBorder(PLAYER_BOX_PADDING,
                                            PLAYER_BOX_PADDING, PLAYER_BOX_PADDING, PLAYER_BOX_PADDING)));
                            setCursor(Cursor.getDefaultCursor());
                        }

                    }
=====================================================================
Found a 18 line (102 tokens) duplication in the following files: 
Starting at line 41 of /home/danysk/git/oop16-barbieri-edoardo-mondani-lorenzo-pancisi-emanuele-perudo/src/perudo/view/swing/panels/game/PlayerPanel.java
Starting at line 42 of /home/danysk/git/oop16-barbieri-edoardo-mondani-lorenzo-pancisi-emanuele-perudo/src/perudo/view/swing/panels/menu/UserPanel.java

        this.lblUser = userInTurn ? (JLabel) factory.createLabel(this.user.getName(), Color.GREEN)
                : (JLabel) factory.createLabel(this.user.getName());
        this.add(Box.createRigidArea(new Dimension(0, 10)));
        this.add(this.lblUser);
        this.add(Box.createRigidArea(new Dimension(0, 10)));
        this.setBorder(new EmptyBorder(0, LEFT_RIGHT_PADDING, 0, LEFT_RIGHT_PADDING));

    }

    /**
     * Set the user to set in panel.
     * 
     * @param user
     *            the user to set in panel
     * @param userInTurn
     *            true if it is the turn of the user to fit, false otherwise
     */
    public void setUser(final User user, final boolean userInTurn) {
=====================================================================
Found a 23 line (97 tokens) duplication in the following files: 
Starting at line 251 of /home/danysk/git/oop16-barbieri-edoardo-mondani-lorenzo-pancisi-emanuele-perudo/src/perudo/model/impl/GameImpl.java
Starting at line 119 of /home/danysk/git/oop16-barbieri-edoardo-mondani-lorenzo-pancisi-emanuele-perudo/src/perudo/model/impl/LobbyImpl.java

    }

    @Override
    public int hashCode() {
        final int prime = 31;
        int result = 1;
        result = prime * result + id;
        result = prime * result + ((settings == null) ? 0 : settings.hashCode());
        return result;
    }

    @Override
    public boolean equals(final Object obj) {
        if (this == obj) {
            return true;
        }
        if (obj == null) {
            return false;
        }
        if (getClass() != obj.getClass()) {
            return false;
        }
        final GameImpl other = (GameImpl) obj;
=====================================================================
Found a 11 line (91 tokens) duplication in the following files: 
Starting at line 351 of /home/danysk/git/oop16-barbieri-edoardo-mondani-lorenzo-pancisi-emanuele-perudo/src/perudo/view/console/GameForm.java
Starting at line 379 of /home/danysk/git/oop16-barbieri-edoardo-mondani-lorenzo-pancisi-emanuele-perudo/src/perudo/view/console/GameForm.java

    public void doubtNotify(final Game game, final User user, final boolean win) {
        if (!game.equals(this.game)) {
            return;
        }

        this.game = game;
        this.diceCount
                .forEach(s -> this.addToHisoty(s, this.diceCount.stream().reduce((s1, s2) -> s1 + "\n" + s2).get()));

        if (win) {
            final String str = user.getName() + " doubts and wins";
=====================================================================
Found a 13 line (87 tokens) duplication in the following files: 
Starting at line 220 of /home/danysk/git/oop16-barbieri-edoardo-mondani-lorenzo-pancisi-emanuele-perudo/src/perudo/controller/net/server/NetworkViewImpl.java
Starting at line 232 of /home/danysk/git/oop16-barbieri-edoardo-mondani-lorenzo-pancisi-emanuele-perudo/src/perudo/controller/net/server/NetworkViewImpl.java

    public void doubtNotify(final Game game, final User user, final boolean win) {
        final Method m = new Object() {
        }.getClass().getEnclosingMethod();
        final Datagram dg = Datagram.createCurrentMethodDatagram(Arrays.asList(m.getParameterTypes()),
                Arrays.asList(game, user, win));
        this.executor.execute(() -> {
            this.datagramStream.send(dg);
        });

    }

    @Override
    public void urgeNotify(final Game game, final User user, final boolean win) {
=====================================================================
Found a 6 line (82 tokens) duplication in the following files: 
Starting at line 52 of /home/danysk/git/oop16-barbieri-edoardo-mondani-lorenzo-pancisi-emanuele-perudo/src/perudo/view/swing/panels/game/PlayerHandPanel.java
Starting at line 87 of /home/danysk/git/oop16-barbieri-edoardo-mondani-lorenzo-pancisi-emanuele-perudo/src/perudo/view/swing/panels/game/PlayerHandPanel.java

        this.setBorder(myUser ? factory.createBorder(Color.BLUE, BORDER_SIZE) : factory.createBorder(Color.BLACK, BORDER_SIZE));
        if (this.myUser) {
            this.game.getUserStatus(this.user).getDiceCount().entrySet().forEach(d -> addDice(d.getKey(), d.getValue()));
        } else {
            this.game.getUserStatus(this.user).getDiceCount().entrySet().forEach(d -> addInvisibleDice(d.getValue()));
        }
=====================================================================
Found a 13 line (81 tokens) duplication in the following files: 
Starting at line 148 of /home/danysk/git/oop16-barbieri-edoardo-mondani-lorenzo-pancisi-emanuele-perudo/src/perudo/controller/net/server/NetworkViewImpl.java
Starting at line 160 of /home/danysk/git/oop16-barbieri-edoardo-mondani-lorenzo-pancisi-emanuele-perudo/src/perudo/controller/net/server/NetworkViewImpl.java

    public void joinLobbyNotify(final Lobby lobby, final User user) {
        final Method m = new Object() {
        }.getClass().getEnclosingMethod();
        final Datagram dg = Datagram.createCurrentMethodDatagram(Arrays.asList(m.getParameterTypes()),
                Arrays.asList(lobby, user));
        this.executor.execute(() -> {
            this.datagramStream.send(dg);
        });

    }

    @Override
    public void exitLobbyNotify(final Lobby lobby, final User user) {
=====================================================================
Found a 13 line (81 tokens) duplication in the following files: 
Starting at line 208 of /home/danysk/git/oop16-barbieri-edoardo-mondani-lorenzo-pancisi-emanuele-perudo/src/perudo/controller/net/server/NetworkViewImpl.java
Starting at line 244 of /home/danysk/git/oop16-barbieri-edoardo-mondani-lorenzo-pancisi-emanuele-perudo/src/perudo/controller/net/server/NetworkViewImpl.java
Starting at line 256 of /home/danysk/git/oop16-barbieri-edoardo-mondani-lorenzo-pancisi-emanuele-perudo/src/perudo/controller/net/server/NetworkViewImpl.java

    public void playNotify(final Game game, final User user) {
        final Method m = new Object() {
        }.getClass().getEnclosingMethod();
        final Datagram dg = Datagram.createCurrentMethodDatagram(Arrays.asList(m.getParameterTypes()),
                Arrays.asList(game, user));
        this.executor.execute(() -> {
            this.datagramStream.send(dg);
        });

    }

    @Override
    public void doubtNotify(final Game game, final User user, final boolean win) {
=====================================================================
Found a 17 line (81 tokens) duplication in the following files: 
Starting at line 37 of /home/danysk/git/oop16-barbieri-edoardo-mondani-lorenzo-pancisi-emanuele-perudo/src/perudo/view/swing/panels/game/PlayersListPanel.java
Starting at line 32 of /home/danysk/git/oop16-barbieri-edoardo-mondani-lorenzo-pancisi-emanuele-perudo/src/perudo/view/swing/panels/menu/UserListPanel.java

        this.game = Optional.empty();
        final GUIFactory factory = GUIFactorySingleton.getFactory();
        this.pnlUserList = factory.createPanel(new GridBagLayout());
        this.setBorder(new TitledBorder(PANEL_TITLE));
        this.cnst = new GridBagConstraints();
        this.cnst.gridy = 0;
        this.cnst.insets = new Insets(0, 0, 0, 0);
        this.add(factory.createScrollPaneWithoutBorder(this.pnlUserList));
    }

    /**
     * Set the game in the panel.
     * 
     * @param game
     *            the game
     */
    public void setGame(final Game game) {
=====================================================================
Found a 9 line (80 tokens) duplication in the following files: 
Starting at line 230 of /home/danysk/git/oop16-barbieri-edoardo-mondani-lorenzo-pancisi-emanuele-perudo/src/perudo/controller/impl/StandardControllerImpl.java
Starting at line 434 of /home/danysk/git/oop16-barbieri-edoardo-mondani-lorenzo-pancisi-emanuele-perudo/src/perudo/controller/impl/StandardControllerImpl.java

            try {
                final Lobby lobby = this.getLobbyFromModel(user);
                lobby.removeUser(user);
                this.views.forEach((u, v) -> v.exitLobbyNotify(lobby, user));
                if (lobby.getUsers().isEmpty()) {
                    this.model.removeLobby(lobby);
                    this.views.forEach((u, v) -> v.removeLobbyNotify(lobby));
                }
            } catch (ErrorTypeException e) {
=====================================================================
Found a 8 line (80 tokens) duplication in the following files: 
Starting at line 379 of /home/danysk/git/oop16-barbieri-edoardo-mondani-lorenzo-pancisi-emanuele-perudo/src/perudo/controller/impl/StandardControllerImpl.java
Starting at line 448 of /home/danysk/git/oop16-barbieri-edoardo-mondani-lorenzo-pancisi-emanuele-perudo/src/perudo/controller/impl/StandardControllerImpl.java

                this.views.get(user).exitGameNotify(game, user);
                if (game.getUsers().size() == 1 && !gameAlreadyOver) {
                    gameViews.forEach((u, v) -> v.gameEndedNotify(game));
                } else if (game.getUsers().isEmpty()) {
                    this.model.removeGame(game);
                    this.views.forEach((u, v) -> v.removeGameNotify(game));
                }
            } catch (ErrorTypeException e) {
=====================================================================
Found a 13 line (75 tokens) duplication in the following files: 
Starting at line 61 of /home/danysk/git/oop16-barbieri-edoardo-mondani-lorenzo-pancisi-emanuele-perudo/src/perudo/controller/net/server/NetworkViewImpl.java
Starting at line 73 of /home/danysk/git/oop16-barbieri-edoardo-mondani-lorenzo-pancisi-emanuele-perudo/src/perudo/controller/net/server/NetworkViewImpl.java

    public void initializeNewUserNotify(final User user) {
        final Method m = new Object() {
        }.getClass().getEnclosingMethod();
        final Datagram dg = Datagram.createCurrentMethodDatagram(Arrays.asList(m.getParameterTypes()),
                Arrays.asList(user));
        this.executor.execute(() -> {
            this.datagramStream.send(dg);
        });

    }

    @Override
    public void userExitNotify(final User user) {
=====================================================================
Found a 13 line (75 tokens) duplication in the following files: 
Starting at line 112 of /home/danysk/git/oop16-barbieri-edoardo-mondani-lorenzo-pancisi-emanuele-perudo/src/perudo/controller/net/server/NetworkViewImpl.java
Starting at line 124 of /home/danysk/git/oop16-barbieri-edoardo-mondani-lorenzo-pancisi-emanuele-perudo/src/perudo/controller/net/server/NetworkViewImpl.java

    public void createLobbyNotify(final Lobby lobby) {
        final Method m = new Object() {
        }.getClass().getEnclosingMethod();
        final Datagram dg = Datagram.createCurrentMethodDatagram(Arrays.asList(m.getParameterTypes()),
                Arrays.asList(lobby));
        this.executor.execute(() -> {
            this.datagramStream.send(dg);
        });

    }

    @Override
    public void removeLobbyNotify(final Lobby lobby) {
=====================================================================
Found a 13 line (75 tokens) duplication in the following files: 
Starting at line 184 of /home/danysk/git/oop16-barbieri-edoardo-mondani-lorenzo-pancisi-emanuele-perudo/src/perudo/controller/net/server/NetworkViewImpl.java
Starting at line 268 of /home/danysk/git/oop16-barbieri-edoardo-mondani-lorenzo-pancisi-emanuele-perudo/src/perudo/controller/net/server/NetworkViewImpl.java

    public void removeGameNotify(final Game game) {
        final Method m = new Object() {
        }.getClass().getEnclosingMethod();
        final Datagram dg = Datagram.createCurrentMethodDatagram(Arrays.asList(m.getParameterTypes()),
                Arrays.asList(game));
        this.executor.execute(() -> {
            this.datagramStream.send(dg);
        });

    }

    @Override
    public void getGamesRespond(final Response<Set<Game>> games) {
=====================================================================
Found a 11 line (75 tokens) duplication in the following files: 
Starting at line 113 of /home/danysk/git/oop16-barbieri-edoardo-mondani-lorenzo-pancisi-emanuele-perudo/src/perudo/view/swing/panels/MenuPanel.java
Starting at line 123 of /home/danysk/git/oop16-barbieri-edoardo-mondani-lorenzo-pancisi-emanuele-perudo/src/perudo/view/swing/panels/MenuPanel.java

            public void mouseClicked(final MouseEvent event) {
                pnlCenter.removeAll();
                pnlLobbyInfoActive = Optional
                        .of(new LobbyInfoPanel(((LobbyPanel) event.getSource()).getLobby(), MenuPanel.this.user.get()));
                pnlCenter.add(pnlLobbyInfoActive.get(), BorderLayout.CENTER);
                pnlCenter.repaint();
                pnlCenter.revalidate();
            }

            @Override
            public void mousePressed(final MouseEvent event) {
=====================================================================
Found a 15 line (72 tokens) duplication in the following files: 
Starting at line 320 of /home/danysk/git/oop16-barbieri-edoardo-mondani-lorenzo-pancisi-emanuele-perudo/src/perudo/controller/impl/StandardControllerImpl.java
Starting at line 341 of /home/danysk/git/oop16-barbieri-edoardo-mondani-lorenzo-pancisi-emanuele-perudo/src/perudo/controller/impl/StandardControllerImpl.java

                gameViews.forEach((u, v) -> v.doubtNotify(game, user, result));
                if (game.isOver()) {
                    gameViews.forEach((u, v) -> v.gameEndedNotify(game));
                }
            } catch (ErrorTypeException e) {
                final View view = this.views.get(user);
                view.showError(e.getErrorType());
            }

        });

    }

    @Override
    public void urge(final User user) {
=====================================================================
Found a 6 line (60 tokens) duplication in the following files: 
Starting at line 373 of /home/danysk/git/oop16-barbieri-edoardo-mondani-lorenzo-pancisi-emanuele-perudo/src/perudo/controller/impl/StandardControllerImpl.java
Starting at line 443 of /home/danysk/git/oop16-barbieri-edoardo-mondani-lorenzo-pancisi-emanuele-perudo/src/perudo/controller/impl/StandardControllerImpl.java

            try {
                final Game game = this.getGameFromModel(user);
                final boolean gameAlreadyOver = game.isOver();
                game.removeUser(user);
                final Map<User, View> gameViews = this.getViewsfromGame(game);
                gameViews.forEach((u, v) -> v.exitGameNotify(game, user));
=====================================================================
Found a 9 line (57 tokens) duplication in the following files: 
Starting at line 259 of /home/danysk/git/oop16-barbieri-edoardo-mondani-lorenzo-pancisi-emanuele-perudo/src/perudo/controller/net/client/ControllerClientImpl.java
Starting at line 275 of /home/danysk/git/oop16-barbieri-edoardo-mondani-lorenzo-pancisi-emanuele-perudo/src/perudo/controller/net/client/ControllerClientImpl.java

    public void exitGame(final User user) {
        final Datagram dg = Datagram.createCurrentMethodDatagram(Arrays.asList(User.class), Arrays.asList(user));
        this.executor.execute(() -> {
            this.send(user, dg);
        });
    }

    @Override
    public void close(final User user) {
=====================================================================
Found a 6 line (57 tokens) duplication in the following files: 
Starting at line 46 of /home/danysk/git/oop16-barbieri-edoardo-mondani-lorenzo-pancisi-emanuele-perudo/src/perudo/controller/net/server/NetworkViewImpl.java
Starting at line 61 of /home/danysk/git/oop16-barbieri-edoardo-mondani-lorenzo-pancisi-emanuele-perudo/src/perudo/controller/net/server/NetworkViewImpl.java
Starting at line 73 of /home/danysk/git/oop16-barbieri-edoardo-mondani-lorenzo-pancisi-emanuele-perudo/src/perudo/controller/net/server/NetworkViewImpl.java

    public void initializeNewUserRespond(final Response<User> user) {
        final Method m = new Object() {
        }.getClass().getEnclosingMethod();
        final Datagram dg = Datagram.createCurrentMethodDatagram(Arrays.asList(m.getParameterTypes()),
                Arrays.asList(user));
        this.executor.execute(() -> {
=====================================================================
Found a 16 line (56 tokens) duplication in the following files: 
Starting at line 258 of /home/danysk/git/oop16-barbieri-edoardo-mondani-lorenzo-pancisi-emanuele-perudo/src/perudo/model/impl/GameImpl.java
Starting at line 171 of /home/danysk/git/oop16-barbieri-edoardo-mondani-lorenzo-pancisi-emanuele-perudo/src/perudo/model/impl/GameSettingsImpl.java
Starting at line 126 of /home/danysk/git/oop16-barbieri-edoardo-mondani-lorenzo-pancisi-emanuele-perudo/src/perudo/model/impl/LobbyImpl.java

        result = prime * result + ((settings == null) ? 0 : settings.hashCode());
        return result;
    }

    @Override
    public boolean equals(final Object obj) {
        if (this == obj) {
            return true;
        }
        if (obj == null) {
            return false;
        }
        if (getClass() != obj.getClass()) {
            return false;
        }
        final GameImpl other = (GameImpl) obj;
=====================================================================
Found a 9 line (55 tokens) duplication in the following files: 
Starting at line 158 of /home/danysk/git/oop16-barbieri-edoardo-mondani-lorenzo-pancisi-emanuele-perudo/src/perudo/controller/net/client/ControllerClientImpl.java
Starting at line 175 of /home/danysk/git/oop16-barbieri-edoardo-mondani-lorenzo-pancisi-emanuele-perudo/src/perudo/controller/net/client/ControllerClientImpl.java
Starting at line 202 of /home/danysk/git/oop16-barbieri-edoardo-mondani-lorenzo-pancisi-emanuele-perudo/src/perudo/controller/net/client/ControllerClientImpl.java
Starting at line 210 of /home/danysk/git/oop16-barbieri-edoardo-mondani-lorenzo-pancisi-emanuele-perudo/src/perudo/controller/net/client/ControllerClientImpl.java
Starting at line 218 of /home/danysk/git/oop16-barbieri-edoardo-mondani-lorenzo-pancisi-emanuele-perudo/src/perudo/controller/net/client/ControllerClientImpl.java
Starting at line 235 of /home/danysk/git/oop16-barbieri-edoardo-mondani-lorenzo-pancisi-emanuele-perudo/src/perudo/controller/net/client/ControllerClientImpl.java
Starting at line 243 of /home/danysk/git/oop16-barbieri-edoardo-mondani-lorenzo-pancisi-emanuele-perudo/src/perudo/controller/net/client/ControllerClientImpl.java
Starting at line 251 of /home/danysk/git/oop16-barbieri-edoardo-mondani-lorenzo-pancisi-emanuele-perudo/src/perudo/controller/net/client/ControllerClientImpl.java
Starting at line 259 of /home/danysk/git/oop16-barbieri-edoardo-mondani-lorenzo-pancisi-emanuele-perudo/src/perudo/controller/net/client/ControllerClientImpl.java
Starting at line 267 of /home/danysk/git/oop16-barbieri-edoardo-mondani-lorenzo-pancisi-emanuele-perudo/src/perudo/controller/net/client/ControllerClientImpl.java
Starting at line 275 of /home/danysk/git/oop16-barbieri-edoardo-mondani-lorenzo-pancisi-emanuele-perudo/src/perudo/controller/net/client/ControllerClientImpl.java

    public void getUsers(final User user) {
        final Datagram dg = Datagram.createCurrentMethodDatagram(Arrays.asList(User.class), Arrays.asList(user));
        this.executor.execute(() -> {
            this.send(user, dg);
        });
    }

    @Override
    public void createLobby(final User user, final GameSettings info) {
=====================================================================
Found a 9 line (54 tokens) duplication in the following files: 
Starting at line 127 of /home/danysk/git/oop16-barbieri-edoardo-mondani-lorenzo-pancisi-emanuele-perudo/src/perudo/controller/impl/StandardControllerImpl.java
Starting at line 159 of /home/danysk/git/oop16-barbieri-edoardo-mondani-lorenzo-pancisi-emanuele-perudo/src/perudo/controller/impl/StandardControllerImpl.java

        Objects.requireNonNull(info);
        this.executor.execute(() -> {
            try {
                if (this.userIsInLobby(user)) {
                    throw new ErrorTypeException(ErrorType.USER_IS_IN_LOBBY);
                } else if (this.userIsInGame(user)) {
                    throw new ErrorTypeException(ErrorType.USER_IS_IN_GAME);
                }
                final Lobby lobby = new LobbyImpl(info, user);
=====================================================================
Found a 13 line (54 tokens) duplication in the following files: 
Starting at line 273 of /home/danysk/git/oop16-barbieri-edoardo-mondani-lorenzo-pancisi-emanuele-perudo/src/perudo/model/impl/GameImpl.java
Starting at line 141 of /home/danysk/git/oop16-barbieri-edoardo-mondani-lorenzo-pancisi-emanuele-perudo/src/perudo/model/impl/LobbyImpl.java

        final GameImpl other = (GameImpl) obj;
        if (id != other.id) {
            return false;
        }
        if (settings == null) {
            if (other.settings != null) {
                return false;
            }
        } else if (!settings.equals(other.settings)) {
            return false;
        }
        return true;
    }
=====================================================================
Found a 6 line (54 tokens) duplication in the following files: 
Starting at line 35 of /home/danysk/git/oop16-barbieri-edoardo-mondani-lorenzo-pancisi-emanuele-perudo/src/perudo/view/swing/panels/menu/ChangeNamePanel.java
Starting at line 78 of /home/danysk/git/oop16-barbieri-edoardo-mondani-lorenzo-pancisi-emanuele-perudo/src/perudo/view/swing/panels/menu/CreateLobbyPanel.java

        this.txfName = (JTextField) factory.createTextField();

        this.add(Box.createRigidArea(new Dimension(0, 10)));
        this.add(factory.createLabel(LABEL_NAME));
        this.add(this.txfName);
        this.add(Box.createRigidArea(new Dimension(0, 10)));
=====================================================================
Found a 11 line (52 tokens) duplication in the following files: 
Starting at line 156 of /home/danysk/git/oop16-barbieri-edoardo-mondani-lorenzo-pancisi-emanuele-perudo/src/perudo/bot/AbstractBot.java
Starting at line 166 of /home/danysk/git/oop16-barbieri-edoardo-mondani-lorenzo-pancisi-emanuele-perudo/src/perudo/bot/AbstractBot.java

    public void doubtNotify(final Game game, final User user, final boolean win) {
        this.runOnExecutor(() -> {
            if (game.equals(this.game)) {
                this.game = game;
                this.play();
            }
        });
    }

    @Override
    public void urgeNotify(final Game game, final User user, final boolean win) {
=====================================================================
Found a 15 line (51 tokens) duplication in the following files: 
Starting at line 63 of /home/danysk/git/oop16-barbieri-edoardo-mondani-lorenzo-pancisi-emanuele-perudo/src/perudo/model/impl/BidImpl.java
Starting at line 259 of /home/danysk/git/oop16-barbieri-edoardo-mondani-lorenzo-pancisi-emanuele-perudo/src/perudo/model/impl/GameImpl.java
Starting at line 172 of /home/danysk/git/oop16-barbieri-edoardo-mondani-lorenzo-pancisi-emanuele-perudo/src/perudo/model/impl/GameSettingsImpl.java
Starting at line 127 of /home/danysk/git/oop16-barbieri-edoardo-mondani-lorenzo-pancisi-emanuele-perudo/src/perudo/model/impl/LobbyImpl.java
Starting at line 131 of /home/danysk/git/oop16-barbieri-edoardo-mondani-lorenzo-pancisi-emanuele-perudo/src/perudo/model/impl/PlayerStatusImpl.java
Starting at line 139 of /home/danysk/git/oop16-barbieri-edoardo-mondani-lorenzo-pancisi-emanuele-perudo/src/perudo/model/impl/UserImpl.java

        return result;
    }

    @Override
    public boolean equals(final Object obj) {
        if (this == obj) {
            return true;
        }
        if (obj == null) {
            return false;
        }
        if (getClass() != obj.getClass()) {
            return false;
        }
        final BidImpl other = (BidImpl) obj;
=====================================================================
Found a 3 line (51 tokens) duplication in the following files: 
Starting at line 118 of /home/danysk/git/oop16-barbieri-edoardo-mondani-lorenzo-pancisi-emanuele-perudo/src/perudo/view/swing/panels/menu/LobbyListPanel.java
Starting at line 132 of /home/danysk/git/oop16-barbieri-edoardo-mondani-lorenzo-pancisi-emanuele-perudo/src/perudo/view/swing/panels/menu/LobbyListPanel.java

    public void updateLobby(final Lobby lobby) {
        for (int i = 0; i < this.pnlLobbyList.getComponentCount(); i++) {
            if (((LobbyPanel) this.pnlLobbyList.getComponent(i)).getLobby().equals(lobby)) {
=====================================================================
Found a 6 line (50 tokens) duplication in the following files: 
Starting at line 62 of /home/danysk/git/oop16-barbieri-edoardo-mondani-lorenzo-pancisi-emanuele-perudo/src/perudo/view/console/CreateLobbyForm.java
Starting at line 88 of /home/danysk/git/oop16-barbieri-edoardo-mondani-lorenzo-pancisi-emanuele-perudo/src/perudo/view/console/CreateLobbyForm.java

        panel.setLayoutManager(new GridLayout(2));

        panel.addComponent(new EmptySpace(new TerminalSize(1, 1)));
        panel.addComponent(new EmptySpace(new TerminalSize(1, 1)));

        panel.addComponent(new EmptySpace(new TerminalSize(2, 1)));
